^C:\Users\boldy\source\repos\Skillbox\Skillbox\Skillbox.vcxproj
C:\Users\boldy\source\repos\Skillbox\x64\Release\Skillbox.ipdb
C:\Users\boldy\source\repos\Skillbox\x64\Release\Skillbox.iobj
^C:\Users\boldy\source\repos\Skillbox\Skillbox\Skillbox.vcxproj
C:\Users\boldy\source\repos\Skillbox\x64\Release\Skillbox.ipdb
C:\Users\boldy\source\repos\Skillbox\x64\Release\Skillbox.iobj
^C:\Users\boldy\source\repos\Skillbox\Skillbox\Skillbox.vcxproj
C:\Users\boldy\source\repos\Skillbox\x64\Release\Skillbox.ipdb
C:\Users\boldy\source\repos\Skillbox\x64\Release\Skillbox.iobj
^C:\Users\boldy\source\repos\Skillbox\Skillbox\Skillbox.vcxproj
C:\Users\boldy\source\repos\Skillbox\x64\Release\Skillbox.ipdb
C:\Users\boldy\source\repos\Skillbox\x64\Release\Skillbox.iobj
^C:\Users\boldy\source\repos\Skillbox\Skillbox\Skillbox.vcxproj
C:\Users\boldy\source\repos\Skillbox\x64\Release\Skillbox.ipdb
C:\Users\boldy\source\repos\Skillbox\x64\Release\Skillbox.iobj
^C:\Users\boldy\source\repos\Skillbox\Skillbox\Skillbox.vcxproj
C:\Users\boldy\source\repos\Skillbox\x64\Release\Skillbox.ipdb
C:\Users\boldy\source\repos\Skillbox\x64\Release\Skillbox.iobj
^C:\Users\boldy\source\repos\Skillbox\Skillbox\Skillbox.vcxproj
C:\Users\boldy\source\repos\Skillbox\x64\Release\Skillbox.ipdb
C:\Users\boldy\source\repos\Skillbox\x64\Release\Skillbox.iobj
^C:\Users\boldy\source\repos\Skillbox\Skillbox\Skillbox.vcxproj
C:\Users\boldy\source\repos\Skillbox\x64\Release\Skillbox.ipdb
C:\Users\boldy\source\repos\Skillbox\x64\Release\Skillbox.iobj
^C:\Users\boldy\source\repos\Skillbox\Skillbox\Skillbox.vcxproj
C:\Users\boldy\source\repos\Skillbox\x64\Release\Skillbox.ipdb
C:\Users\boldy\source\repos\Skillbox\x64\Release\Skillbox.iobj
^C:\Users\boldy\source\repos\Skillbox\Skillbox\Skillbox.vcxproj
C:\Users\boldy\source\repos\Skillbox\x64\Release\Skillbox.ipdb
C:\Users\boldy\source\repos\Skillbox\x64\Release\Skillbox.iobj
^C:\Users\boldy\source\repos\Skillbox\Skillbox\Skillbox.vcxproj
C:\Users\boldy\source\repos\Skillbox\x64\Release\Skillbox.ipdb
C:\Users\boldy\source\repos\Skillbox\x64\Release\Skillbox.iobj
^C:\Users\boldy\source\repos\Skillbox\Skillbox\Skillbox.vcxproj
C:\Users\boldy\source\repos\Skillbox\x64\Release\Skillbox.ipdb
C:\Users\boldy\source\repos\Skillbox\x64\Release\Skillbox.iobj
^C:\Users\boldy\source\repos\Skillbox\Skillbox\Skillbox.vcxproj
C:\Users\boldy\source\repos\Skillbox\x64\Release\Skillbox.ipdb
C:\Users\boldy\source\repos\Skillbox\x64\Release\Skillbox.iobj
^C:\Users\boldy\source\repos\Skillbox\Skillbox\Skillbox.vcxproj
C:\Users\boldy\source\repos\Skillbox\x64\Release\Skillbox.ipdb
C:\Users\boldy\source\repos\Skillbox\x64\Release\Skillbox.iobj
^C:\Users\boldy\source\repos\Skillbox\Skillbox\Skillbox.vcxproj
C:\Users\boldy\source\repos\Skillbox\x64\Release\Skillbox.ipdb
C:\Users\boldy\source\repos\Skillbox\x64\Release\Skillbox.iobj
^C:\Users\boldy\source\repos\Skillbox\Skillbox\Skillbox.vcxproj
C:\Users\boldy\source\repos\Skillbox\x64\Release\Skillbox.ipdb
C:\Users\boldy\source\repos\Skillbox\x64\Release\Skillbox.iobj
^C:\Users\boldy\source\repos\Skillbox\Skillbox\Skillbox.vcxproj
C:\Users\boldy\source\repos\Skillbox\x64\Release\Skillbox.ipdb
C:\Users\boldy\source\repos\Skillbox\x64\Release\Skillbox.iobj
^C:\Users\boldy\source\repos\Skillbox\Skillbox\Skillbox.vcxproj
C:\Users\boldy\source\repos\Skillbox\x64\Release\Skillbox.ipdb
C:\Users\boldy\source\repos\Skillbox\x64\Release\Skillbox.iobj
^C:\Users\boldy\source\repos\Skillbox\Skillbox\Skillbox.vcxproj
C:\Users\boldy\source\repos\Skillbox\x64\Release\Skillbox.ipdb
C:\Users\boldy\source\repos\Skillbox\x64\Release\Skillbox.iobj
^C:\Users\boldy\source\repos\Skillbox\Skillbox\Skillbox.vcxproj
C:\Users\boldy\source\repos\Skillbox\x64\Release\Skillbox.ipdb
C:\Users\boldy\source\repos\Skillbox\x64\Release\Skillbox.iobj
^C:\Users\boldy\source\repos\Skillbox\Skillbox\Skillbox.vcxproj
C:\Users\boldy\source\repos\Skillbox\x64\Release\Skillbox.ipdb
C:\Users\boldy\source\repos\Skillbox\x64\Release\Skillbox.iobj
^C:\Users\boldy\source\repos\Skillbox\Skillbox\Skillbox.vcxproj
C:\Users\boldy\source\repos\Skillbox\x64\Release\Skillbox.ipdb
C:\Users\boldy\source\repos\Skillbox\x64\Release\Skillbox.iobj
^C:\Users\boldy\source\repos\Skillbox\Skillbox\Skillbox.vcxproj
C:\Users\boldy\source\repos\Skillbox\x64\Release\Skillbox.ipdb
C:\Users\boldy\source\repos\Skillbox\x64\Release\Skillbox.iobj
^C:\Users\boldy\source\repos\Skillbox\Skillbox\Skillbox.vcxproj
C:\Users\boldy\source\repos\Skillbox\x64\Release\Skillbox.ipdb
C:\Users\boldy\source\repos\Skillbox\x64\Release\Skillbox.iobj
^C:\Users\boldy\source\repos\Skillbox\Skillbox\Skillbox.vcxproj
C:\Users\boldy\source\repos\Skillbox\x64\Release\Skillbox.ipdb
C:\Users\boldy\source\repos\Skillbox\x64\Release\Skillbox.iobj
